riscv/test/out.vcd
$date
	Mon Nov 29 13:03:30 2021
$end
$version
	Icarus Verilog
$end
$timescale
	1ps
$end
$scope module testbench $end
$var reg 1 ! clk $end
$var reg 1 " rst $end
$scope module top $end
$var wire 1 ! EXCLK $end
$var wire 1 # Rx $end
$var wire 1 " btnC $end
$var wire 1 $ clk $end
$var wire 32 % cpu_dbgreg_dout [31:0] $end
$var wire 8 & hci_io_din [7:0] $end
$var wire 1 ' hci_io_wr $end
$var wire 8 ( hci_ram_din [7:0] $end
$var wire 1 ) led $end
$var wire 1 * ram_en $end
$var wire 8 + ram_dout [7:0] $end
$var wire 17 , ram_a [16:0] $end
$var wire 1 - program_finish $end
$var wire 1 . hci_ram_wr $end
$var wire 8 / hci_ram_dout [7:0] $end
$var wire 17 0 hci_ram_a [16:0] $end
$var wire 3 1 hci_io_sel [2:0] $end
$var wire 1 2 hci_io_full $end
$var wire 1 3 hci_io_en $end
$var wire 8 4 hci_io_dout [7:0] $end
$var wire 1 5 hci_active_out $end
$var wire 1 6 hci_active $end
$var wire 1 7 cpumc_wr $end
$var wire 8 8 cpumc_din [7:0] $end
$var wire 32 9 cpumc_a [31:0] $end
$var wire 1 : cpu_rdy $end
$var wire 1 ; cpu_ram_wr $end
$var wire 8 < cpu_ram_dout [7:0] $end
$var wire 8 = cpu_ram_din [7:0] $end
$var wire 32 > cpu_ram_a [31:0] $end
$var wire 1 ? Tx $end
$var reg 1 @ q_hci_io_en $end
$var reg 1 A rst $end
$var reg 1 B rst_delay $end
$scope module cpu0 $end
$var wire 1 $ clk_in $end
$var wire 32 C dbgreg_dout [31:0] $end
$var wire 8 D mem_din [7:0] $end
$var wire 1 : rdy_in $end
$var wire 1 E rst $end
$var wire 1 F rst_in $end
$var wire 1 G write_rsd_or_not_to_mem $end
$var wire 1 H write_rsd_or_not_to_ex_ $end
$var wire 1 I wb_write_or_not $end
$var wire 32 J wb_write_data_ [31:0] $end
$var wire 5 K wb_write_addr_ [4:0] $end
$var wire 32 L store_data_to_mem [31:0] $end
$var wire 32 M store_data_out_from_ex [31:0] $end
$var wire 5 N rsd_to_ex_ [4:0] $end
$var wire 32 O rsd_data_out_to_mem [31:0] $end
$var wire 32 P rsd_data_from_mem [31:0] $end
$var wire 5 Q rsd_addr_out_to_mem [4:0] $end
$var wire 5 R rsd_addr_from_mem [4:0] $end
$var wire 5 S reg2addr_ [4:0] $end
$var wire 32 T reg2_to_ex_ [31:0] $end
$var wire 1 U reg2_reador_not_ $end
$var wire 32 V reg2_data_ [31:0] $end
$var wire 5 W reg1addr_ [4:0] $end
$var wire 32 X reg1_to_ex_ [31:0] $end
$var wire 1 Y reg1_reador_not_ $end
$var wire 32 Z reg1_data_ [31:0] $end
$var wire 32 [ pc_to_if [31:0] $end
$var wire 32 \ pc_out_to_ex_ [31:0] $end
$var wire 1 ] out_write_or_not_from_mem $end
$var wire 1 ^ memload_done $end
$var wire 32 _ memdata_to_write_to_memctrl [31:0] $end
$var wire 32 ` memctrl_load_to_mem [31:0] $end
$var wire 32 a memctrl_load_to_if [31:0] $end
$var wire 32 b memaddr_to_read_to_memctrl [31:0] $end
$var wire 1 ; mem_wr $end
$var wire 1 c mem_stall $end
$var wire 1 d mem_if_write $end
$var wire 1 e mem_if_read $end
$var wire 8 f mem_dout [7:0] $end
$var wire 2 g mem_busy_state [1:0] $end
$var wire 32 h mem_addr_out_mem [31:0] $end
$var wire 32 i mem_a [31:0] $end
$var wire 1 j isloading_ex_ $end
$var wire 1 2 io_buffer_full $end
$var wire 32 k imm_out_to_ex_ [31:0] $end
$var wire 1 l if_stall $end
$var wire 1 m if_read_or_not_ $end
$var wire 32 n if_read_addr_tomemctrl_ [31:0] $end
$var wire 32 o if_pc_out_ [31:0] $end
$var wire 1 p if_load_done $end
$var wire 32 q if_instru_out_to_if_id [31:0] $end
$var wire 32 r if_id_pc_to_id [31:0] $end
$var wire 32 s if_id_instru_to_id [31:0] $end
$var wire 1 t id_write_rsd_or_not $end
$var wire 1 u id_stall $end
$var wire 5 v id_rsd_to_ex_ [4:0] $end
$var wire 32 w id_reg2_to_ex_ [31:0] $end
$var wire 32 x id_reg1_to_ex_ [31:0] $end
$var wire 32 y id_pc_out_ [31:0] $end
$var wire 32 z id_immout_ [31:0] $end
$var wire 6 { id_cmdtype_to_exe_ [5:0] $end
$var wire 6 | from_stall_ctrl [5:0] $end
$var wire 1 } ex_write_or_not $end
$var wire 32 ~ ex_rsd_data_ [31:0] $end
$var wire 5 !" ex_rsd_adr_to_write_ [4:0] $end
$var wire 32 "" ex_mem_addr_ [31:0] $end
$var wire 1 #" ex_forward_id_i_ $end
$var wire 32 $" ex_forward_data_i_ [31:0] $end
$var wire 5 %" ex_forward_addr_i_ [4:0] $end
$var wire 6 &" ex_cmd_type_ [5:0] $end
$var wire 3 '" data_len_ [2:0] $end
$var wire 6 (" cmdtype_to_mem [5:0] $end
$var wire 6 )" cmdtype_to_exe_ [5:0] $end
$var wire 32 *" branch_out_addr [31:0] $end
$var wire 1 +" branch_or_not_ $end
$scope module ex_ $end
$var wire 1 E rst_in $end
$var wire 1 H write_rsd_or_not_to_ex $end
$var wire 5 ," rsd_to_ex [4:0] $end
$var wire 32 -" reg2_to_ex [31:0] $end
$var wire 32 ." reg1_to_ex [31:0] $end
$var wire 32 /" pc_in [31:0] $end
$var wire 32 0" imm_in [31:0] $end
$var wire 6 1" cmdtype_to_exe [5:0] $end
$var reg 32 2" branch_address [31:0] $end
$var reg 1 +" branch_or_not $end
$var reg 6 3" cmdtype_out [5:0] $end
$var reg 5 4" ex_forward_addr_o [4:0] $end
$var reg 32 5" ex_forward_data_o [31:0] $end
$var reg 1 #" ex_forward_id_o $end
$var reg 1 j isloading_ex $end
$var reg 32 6" mem_addr [31:0] $end
$var reg 32 7" mem_val_out_for_store [31:0] $end
$var reg 5 8" rsd_addr_to_write [4:0] $end
$var reg 32 9" rsd_data [31:0] $end
$var reg 1 } write_rsd_or_not $end
$upscope $end
$scope module ex_mem_ $end
$var wire 1 $ clk_in $end
$var wire 6 :" cmdtype [5:0] $end
$var wire 32 ;" mem_addr [31:0] $end
$var wire 1 : rdy_in $end
$var wire 5 <" rsd_addr_to_write [4:0] $end
$var wire 32 =" rsd_data [31:0] $end
$var wire 1 E rst_in $end
$var wire 32 >" store_data [31:0] $end
$var wire 1 } write_rsd_or_not $end
$var wire 6 ?" stall_in [5:0] $end
$var reg 6 @" cmdtype_out [5:0] $end
$var reg 32 A" mem_addr_out [31:0] $end
$var reg 5 B" rsd_addr_out [4:0] $end
$var reg 32 C" rsd_data_out [31:0] $end
$var reg 32 D" store_data_out [31:0] $end
$var reg 1 G write_rsd_or_not_out $end
$upscope $end
$scope module id_ $end
$var wire 5 E" ex_forward_addr_i [4:0] $end
$var wire 32 F" ex_forward_data_i [31:0] $end
$var wire 1 #" ex_forward_id_i $end
$var wire 1 j isloading_ex $end
$var wire 1 E rst_in $end
$var wire 1 u stallfrom_id $end
$var wire 32 G" reg2_data [31:0] $end
$var wire 32 H" reg1_data [31:0] $end
$var wire 7 I" opcode [6:0] $end
$var wire 1 ] mem_forward_id_i $end
$var wire 32 J" mem_forward_data_i [31:0] $end
$var wire 5 K" mem_forward_addr_i [4:0] $end
$var wire 32 L" input_pc [31:0] $end
$var wire 32 M" input_instru [31:0] $end
$var wire 7 N" fun7 [6:0] $end
$var wire 3 O" fun3 [2:0] $end
$var reg 6 P" cmdtype_to_exe [5:0] $end
$var reg 32 Q" immout [31:0] $end
$var reg 32 R" immreg [31:0] $end
$var reg 32 S" pc_out [31:0] $end
$var reg 1 Y reg1_reador_not $end
$var reg 32 T" reg1_to_ex [31:0] $end
$var reg 5 U" reg1addr [4:0] $end
$var reg 1 U reg2_reador_not $end
$var reg 32 V" reg2_to_ex [31:0] $end
$var reg 5 W" reg2addr [4:0] $end
$var reg 5 X" rsd_to_ex [4:0] $end
$var reg 1 Y" stall1 $end
$var reg 1 Z" stall2 $end
$var reg 1 t write_rsd_or_not $end
$upscope $end
$scope module id_ex_ $end
$var wire 1 +" branch_or_not $end
$var wire 1 $ clk_in $end
$var wire 6 [" cmdtype_from_id [5:0] $end
$var wire 32 \" imm_in [31:0] $end
$var wire 32 ]" pc_in [31:0] $end
$var wire 1 : rdy_in $end
$var wire 32 ^" reg1_from_id [31:0] $end
$var wire 32 _" reg2_from_id [31:0] $end
$var wire 5 `" rsd_from_id [4:0] $end
$var wire 1 E rst_in $end
$var wire 1 t write_rsd_or_not_from_id $end
$var wire 6 a" stall_in [5:0] $end
$var reg 6 b" cmdtype_to_exe [5:0] $end
$var reg 32 c" imm_out [31:0] $end
$var reg 32 d" pc_out [31:0] $end
$var reg 32 e" reg1_to_ex [31:0] $end
$var reg 32 f" reg2_to_ex [31:0] $end
$var reg 5 g" rsd_to_ex [4:0] $end
$var reg 1 H write_rsd_or_not_to_ex $end
$upscope $end
$scope module if_ $end
$var wire 1 E rst_in $end
$var wire 32 h" pc_in [31:0] $end
$var wire 32 i" mem_ctrl_read_in [31:0] $end
$var wire 2 j" mem_ctrl_busy_state [1:0] $end
$var wire 1 p if_load_done $end
$var reg 32 k" instr_out [31:0] $end
$var reg 32 l" intru_addr [31:0] $end
$var reg 32 m" pc_out [31:0] $end
$var reg 1 m read_or_not $end
$var reg 1 l stall_from_if $end
$upscope $end
$scope module if_id_ $end
$var wire 1 +" branch_or_not $end
$var wire 1 $ clk_in $end
$var wire 32 n" input_instru [31:0] $end
$var wire 32 o" input_pc [31:0] $end
$var wire 1 : rdy_in $end
$var wire 1 E rst_in $end
$var wire 6 p" stall_in [5:0] $end
$var reg 32 q" output_instru [31:0] $end
$var reg 32 r" output_pc [31:0] $end
$var reg 32 s" preinstruction_record [31:0] $end
$upscope $end
$scope module mem_ $end
$var wire 6 t" cmdtype [5:0] $end
$var wire 5 u" input_rd_addr [4:0] $end
$var wire 32 v" input_rd_data [31:0] $end
$var wire 32 w" mem_addr [31:0] $end
$var wire 1 E rst_in $end
$var wire 32 x" storedata_in [31:0] $end
$var wire 1 G write_or_not $end
$var wire 1 ^ mem_load_done $end
$var wire 32 y" mem_ctrl_read_in [31:0] $end
$var wire 2 z" mem_ctrl_busy_state [1:0] $end
$var reg 3 {" data_len [2:0] $end
$var reg 32 |" mem_addr_to_read [31:0] $end
$var reg 32 }" mem_data_to_write [31:0] $end
$var reg 5 ~" out_rd_addr [4:0] $end
$var reg 32 !# out_rd_data [31:0] $end
$var reg 1 ] out_write_or_not $end
$var reg 1 e read_mem $end
$var reg 1 c stall_from_mem $end
$var reg 1 d write_mem $end
$upscope $end
$scope module mem_wb_ $end
$var wire 1 $ clk_in $end
$var wire 1 ] if_write $end
$var wire 5 "# mem_reg_addr [4:0] $end
$var wire 32 ## mem_reg_data [31:0] $end
$var wire 1 : rdy_in $end
$var wire 1 E rst_in $end
$var wire 6 $# stall_in [5:0] $end
$var reg 1 I if_write_out $end
$var reg 5 %# mem_reg_addr_out [4:0] $end
$var reg 32 &# mem_reg_data_out [31:0] $end
$upscope $end
$scope module memctrl_ $end
$var wire 1 $ clk_in $end
$var wire 8 '# d_in [7:0] $end
$var wire 3 (# data_len [2:0] $end
$var wire 1 m if_read_or_not $end
$var wire 32 )# intru_addr [31:0] $end
$var wire 32 *# mem_addr [31:0] $end
$var wire 32 +# mem_data_to_write [31:0] $end
$var wire 1 : rdy_in $end
$var wire 1 e read_mem $end
$var wire 1 E rst_in $end
$var wire 1 d write_mem $end
$var wire 3 ,# select_cnt [2:0] $end
$var wire 1 ; r_or_w $end
$var wire 32 -# nowaddr [31:0] $end
$var wire 1 2 io_full $end
$var wire 8 .# d_out [7:0] $end
$var wire 32 /# a_out [31:0] $end
$var reg 4 0# IO_cnt [3:0] $end
$var reg 1 1# IO_switch $end
$var reg 1 2# dchachswicth $end
$var reg 1 3# ichachswicth $end
$var reg 1 p if_load_done $end
$var reg 3 4# if_read_cnt [2:0] $end
$var reg 32 5# if_read_instru [31:0] $end
$var reg 2 6# mem_ctrl_busy_state [1:0] $end
$var reg 32 7# mem_ctrl_instru_to_if [31:0] $end
$var reg 32 8# mem_ctrl_load_to_mem [31:0] $end
$var reg 1 ^ mem_load_done $end
$var reg 3 9# mem_read_cnt [2:0] $end
$var reg 32 :# mem_read_data [31:0] $end
$var reg 3 ;# mem_write_cnt [2:0] $end
$var reg 32 <# mem_write_data [31:0] $end
$var reg 32 =# preaddr [31:0] $end
$var integer 32 ># i [31:0] $end
$upscope $end
$scope module pc_ $end
$var wire 32 ?# branch_addr [31:0] $end
$var wire 1 +" branch_or_not $end
$var wire 1 $ clk_in $end
$var wire 1 : rdy_in $end
$var wire 1 E rst_in $end
$var wire 6 @# stall_in [5:0] $end
$var wire 32 A# pc_nxt [31:0] $end
$var reg 32 B# pc_out [31:0] $end
$upscope $end
$scope module regfile_ $end
$var wire 1 $ clk_in $end
$var wire 1 Y read1_or_not $end
$var wire 1 U read2_or_not $end
$var wire 5 C# readaddr1 [4:0] $end
$var wire 5 D# readaddr2 [4:0] $end
$var wire 1 E rst_in $end
$var wire 1 I write_or_not $end
$var wire 5 E# writeaddr [4:0] $end
$var wire 32 F# writedata [31:0] $end
$var reg 32 G# read1data [31:0] $end
$var reg 32 H# read2data [31:0] $end
$var integer 32 I# i [31:0] $end
$upscope $end
$scope module stallctrl_ $end
$var wire 1 u stall_from_id $end
$var wire 1 l stall_from_if $end
$var wire 1 c stall_from_mem $end
$var reg 6 J# stall [5:0] $end
$upscope $end
$upscope $end
$scope module hci0 $end
$var wire 1 $ clk $end
$var wire 32 K# cpu_dbgreg_din [31:0] $end
$var wire 8 L# io_din [7:0] $end
$var wire 1 3 io_en $end
$var wire 1 2 io_full $end
$var wire 3 M# io_sel [2:0] $end
$var wire 1 ' io_wr $end
$var wire 17 N# ram_a [16:0] $end
$var wire 8 O# ram_din [7:0] $end
$var wire 8 P# ram_dout [7:0] $end
$var wire 1 A rst $end
$var wire 1 # rx $end
$var wire 1 Q# tx_full $end
$var wire 1 ? tx $end
$var wire 1 R# rx_empty $end
$var wire 8 S# rd_data [7:0] $end
$var wire 1 T# parity_err $end
$var wire 8 U# io_in_rd_data [7:0] $end
$var wire 1 V# io_in_full $end
$var wire 1 W# io_in_empty $end
$var wire 8 X# io_dout [7:0] $end
$var wire 32 Y# d_cpu_cycle_cnt [31:0] $end
$var wire 1 5 active $end
$var reg 17 Z# d_addr [16:0] $end
$var reg 3 [# d_decode_cnt [2:0] $end
$var reg 2 \# d_err_code [1:0] $end
$var reg 17 ]# d_execute_cnt [16:0] $end
$var reg 8 ^# d_io_dout [7:0] $end
$var reg 8 _# d_io_in_wr_data [7:0] $end
$var reg 1 `# d_io_in_wr_en $end
$var reg 1 a# d_program_finish $end
$var reg 5 b# d_state [4:0] $end
$var reg 8 c# d_tx_data [7:0] $end
$var reg 1 d# d_wr_en $end
$var reg 1 e# io_in_rd_en $end
$var reg 1 - program_finish $end
$var reg 17 f# q_addr [16:0] $end
$var reg 32 g# q_cpu_cycle_cnt [31:0] $end
$var reg 3 h# q_decode_cnt [2:0] $end
$var reg 2 i# q_err_code [1:0] $end
$var reg 17 j# q_execute_cnt [16:0] $end
$var reg 8 k# q_io_dout [7:0] $end
$var reg 1 l# q_io_en $end
$var reg 8 m# q_io_in_wr_data [7:0] $end
$var reg 1 n# q_io_in_wr_en $end
$var reg 5 o# q_state [4:0] $end
$var reg 8 p# q_tx_data [7:0] $end
$var reg 1 q# q_wr_en $end
$var reg 1 . ram_wr $end
$var reg 1 r# rd_en $end
$scope module io_in_fifo $end
$var wire 10 s# addr_bits_wide_1 [9:0] $end
$var wire 1 $ clk $end
$var wire 1 t# d_empty $end
$var wire 1 u# d_full $end
$var wire 1 W# empty $end
$var wire 1 V# full $end
$var wire 8 v# rd_data [7:0] $end
$var wire 1 e# rd_en $end
$var wire 1 w# rd_en_prot $end
$var wire 1 A reset $end
$var wire 8 x# wr_data [7:0] $end
$var wire 1 n# wr_en $end
$var wire 1 y# wr_en_prot $end
$var wire 10 z# d_wr_ptr [9:0] $end
$var wire 10 {# d_rd_ptr [9:0] $end
$var wire 8 |# d_data [7:0] $end
$var reg 1 }# q_empty $end
$var reg 1 ~# q_full $end
$var reg 10 !$ q_rd_ptr [9:0] $end
$var reg 10 "$ q_wr_ptr [9:0] $end
$upscope $end
$scope module uart_blk $end
$var wire 1 $ clk $end
$var wire 1 #$ d_rx_parity_err $end
$var wire 1 T# parity_err $end
$var wire 1 r# rd_en $end
$var wire 1 A reset $end
$var wire 1 # rx $end
$var wire 8 $$ tx_data [7:0] $end
$var wire 1 q# wr_en $end
$var wire 1 Q# tx_full $end
$var wire 8 %$ tx_fifo_rd_data [7:0] $end
$var wire 1 &$ tx_fifo_empty $end
$var wire 1 '$ tx_done_tick $end
$var wire 1 ? tx $end
$var wire 1 ($ rx_parity_err $end
$var wire 8 )$ rx_fifo_wr_data [7:0] $end
$var wire 1 R# rx_empty $end
$var wire 1 *$ rx_done_tick $end
$var wire 8 +$ rx_data [7:0] $end
$var wire 1 ,$ baud_clk_tick $end
$var reg 1 -$ q_rx_parity_err $end
$scope module uart_baud_clk_blk $end
$var wire 1 $ clk $end
$var wire 1 A reset $end
$var wire 16 .$ d_cnt [15:0] $end
$var wire 1 ,$ baud_clk_tick $end
$var reg 16 /$ q_cnt [15:0] $end
$upscope $end
$scope module uart_rx_blk $end
$var wire 1 ,$ baud_clk_tick $end
$var wire 1 $ clk $end
$var wire 1 A reset $end
$var wire 1 # rx $end
$var wire 8 0$ rx_data [7:0] $end
$var wire 1 *$ rx_done_tick $end
$var wire 1 ($ parity_err $end
$var reg 8 1$ d_data [7:0] $end
$var reg 3 2$ d_data_bit_idx [2:0] $end
$var reg 1 3$ d_done_tick $end
$var reg 4 4$ d_oversample_tick_cnt [3:0] $end
$var reg 1 5$ d_parity_err $end
$var reg 5 6$ d_state [4:0] $end
$var reg 8 7$ q_data [7:0] $end
$var reg 3 8$ q_data_bit_idx [2:0] $end
$var reg 1 *$ q_done_tick $end
$var reg 4 9$ q_oversample_tick_cnt [3:0] $end
$var reg 1 ($ q_parity_err $end
$var reg 1 :$ q_rx $end
$var reg 5 ;$ q_state [4:0] $end
$upscope $end
$scope module uart_rx_fifo $end
$var wire 3 <$ addr_bits_wide_1 [2:0] $end
$var wire 1 $ clk $end
$var wire 1 =$ d_empty $end
$var wire 1 >$ d_full $end
$var wire 1 R# empty $end
$var wire 1 ?$ full $end
$var wire 8 @$ rd_data [7:0] $end
$var wire 1 r# rd_en $end
$var wire 1 A$ rd_en_prot $end
$var wire 1 A reset $end
$var wire 8 B$ wr_data [7:0] $end
$var wire 1 *$ wr_en $end
$var wire 1 C$ wr_en_prot $end
$var wire 3 D$ d_wr_ptr [2:0] $end
$var wire 3 E$ d_rd_ptr [2:0] $end
$var wire 8 F$ d_data [7:0] $end
$var reg 1 G$ q_empty $end
$var reg 1 H$ q_full $end
$var reg 3 I$ q_rd_ptr [2:0] $end
$var reg 3 J$ q_wr_ptr [2:0] $end
$upscope $end
$scope module uart_tx_blk $end
$var wire 1 ,$ baud_clk_tick $end
$var wire 1 $ clk $end
$var wire 1 A reset $end
$var wire 1 ? tx $end
$var wire 1 '$ tx_done_tick $end
$var wire 1 K$ tx_start $end
$var wire 8 L$ tx_data [7:0] $end
$var reg 4 M$ d_baud_clk_tick_cnt [3:0] $end
$var reg 8 N$ d_data [7:0] $end
$var reg 3 O$ d_data_bit_idx [2:0] $end
$var reg 1 P$ d_parity_bit $end
$var reg 5 Q$ d_state [4:0] $end
$var reg 1 R$ d_tx $end
$var reg 1 S$ d_tx_done_tick $end
$var reg 4 T$ q_baud_clk_tick_cnt [3:0] $end
$var reg 8 U$ q_data [7:0] $end
$var reg 3 V$ q_data_bit_idx [2:0] $end
$var reg 1 W$ q_parity_bit $end
$var reg 5 X$ q_state [4:0] $end
$var reg 1 Y$ q_tx $end
$var reg 1 '$ q_tx_done_tick $end
$upscope $end
$scope module uart_tx_fifo $end
$var wire 10 Z$ addr_bits_wide_1 [9:0] $end
$var wire 1 $ clk $end
$var wire 1 [$ d_empty $end
$var wire 1 \$ d_full $end
$var wire 1 &$ empty $end
$var wire 1 Q# full $end
$var wire 8 ]$ rd_data [7:0] $end
$var wire 1 '$ rd_en $end
$var wire 1 ^$ rd_en_prot $end
$var wire 1 A reset $end
$var wire 8 _$ wr_data [7:0] $end
$var wire 1 q# wr_en $end
$var wire 1 `$ wr_en_prot $end
$var wire 10 a$ d_wr_ptr [9:0] $end
$var wire 10 b$ d_rd_ptr [9:0] $end
$var wire 8 c$ d_data [7:0] $end
$var reg 1 d$ q_empty $end
$var reg 1 e$ q_full $end
$var reg 10 f$ q_rd_ptr [9:0] $end
$var reg 10 g$ q_wr_ptr [9:0] $end
$upscope $end
$upscope $end
$upscope $end
$scope module ram0 $end
$var wire 17 h$ a_in [16:0] $end
$var wire 1 $ clk_in $end
$var wire 8 i$ d_in [7:0] $end
$var wire 1 * en_in $end
$var wire 1 j$ r_nw_in $end
$var wire 1 k$ ram_bram_we $end
$var wire 8 l$ ram_bram_dout [7:0] $end
$var wire 8 m$ d_out [7:0] $end
$scope module ram_bram $end
$var wire 17 n$ addr_a [16:0] $end
$var wire 1 $ clk $end
$var wire 8 o$ din_a [7:0] $end
$var wire 8 p$ dout_a [7:0] $end
$var wire 1 k$ we $end
$var reg 17 q$ q_addr_a [16:0] $end
$var integer 32 r$ i [31:0] $end
$upscope $end
$upscope $end
$upscope $end
$upscope $end
$enddefinitions $end
#0
$dumpvars
b100000000000000000 r$
bx q$
bx p$
bx o$
bx n$
bx m$
bx l$
0k$
1j$
bx i$
bx h$
bx g$
bx f$
xe$
xd$
bx c$
bx b$
bx a$
x`$
bx _$
0^$
bx ]$
x\$
x[$
b1 Z$
1Y$
b1 X$
0W$
b0 V$
b0 U$
b0 T$
0S$
1R$
b1 Q$
0P$
b0 O$
b0 N$
b0 M$
bx L$
xK$
bx J$
bx I$
xH$
xG$
bx F$
bx E$
bx D$
0C$
b0 B$
0A$
bx @$
x?$
x>$
x=$
b1 <$
b1 ;$
1:$
b0 9$
b0 8$
b0 7$
b1 6$
05$
b0 4$
03$
b0 2$
b0 1$
b0 0$
b0 /$
b1 .$
0-$
0,$
bx +$
0*$
b0 )$
0($
0'$
x&$
bx %$
bx $$
0#$
bx "$
bx !$
x~#
x}#
bx |#
bx {#
bx z#
xy#
bx x#
0w#
bx v#
xu#
xt#
b1 s#
0r#
xq#
bx p#
bx o#
xn#
bx m#
xl#
bx k#
bx j#
bx i#
bx h#
bx g#
bx f#
0e#
0d#
b0 c#
bx b#
0a#
0`#
b0 _#
b0 ^#
bx ]#
bx \#
bx [#
bx Z#
bx Y#
bx X#
xW#
xV#
bx U#
0T#
bx S#
xR#
xQ#
bx P#
bx O#
bx N#
bx M#
bx L#
bz K#
b0 J#
bx I#
b0 H#
b0 G#
bx F#
bx E#
b0 D#
b0 C#
bx B#
bx A#
b0 @#
b0 ?#
bx >#
bx =#
bx <#
bx ;#
bx :#
bx 9#
bx 8#
bx 7#
bx 6#
bx 5#
bx 4#
x3#
x2#
x1#
bx 0#
bx /#
bx .#
b0 -#
bx ,#
b0 +#
b0 *#
b0 )#
b0 (#
bx '#
bx &#
bx %#
b0 $#
b0 ##
b0 "#
b0 !#
b0 ~"
b0 }"
b0 |"
b0 {"
bx z"
bx y"
bx x"
bx w"
bx v"
bx u"
bx t"
bx s"
bx r"
bx q"
b0 p"
b0 o"
b0 n"
b0 m"
b0 l"
b0 k"
bx j"
bx i"
bx h"
bx g"
bx f"
bx e"
bx d"
bx c"
bx b"
b0 a"
b0 `"
b0 _"
b0 ^"
b0 ]"
b0 \"
b0 ["
0Z"
0Y"
b0 X"
b0 W"
b0 V"
b0 U"
b0 T"
b0 S"
b0 R"
b0 Q"
b0 P"
bx O"
bx N"
bx M"
bx L"
b0 K"
b0 J"
bx I"
b0 H"
b0 G"
b0 F"
b0 E"
bx D"
bx C"
bx B"
bx A"
bx @"
b0 ?"
b0 >"
b0 ="
b0 <"
b0 ;"
bx :"
b0 9"
b0 8"
b0 7"
b0 6"
b0 5"
b0 4"
bx 3"
b0 2"
bx 1"
bx 0"
bx /"
bx ."
bx -"
bx ,"
0+"
b0 *"
bx )"
bx ("
b0 '"
bx &"
b0 %"
b0 $"
0#"
b0 ""
b0 !"
b0 ~
0}
b0 |
b0 {
b0 z
b0 y
b0 x
b0 w
b0 v
0u
0t
bx s
bx r
b0 q
xp
b0 o
b0 n
0m
0l
bx k
0j
bx i
bx h
bx g
bx f
0e
0d
0c
b0 b
bx a
bx `
b0 _
x^
0]
bx \
bx [
b0 Z
0Y
bx X
b0 W
b0 V
0U
bx T
b0 S
b0 R
bx Q
b0 P
bx O
bx N
b0 M
bx L
bx K
bx J
xI
xH
xG
1F
1E
bx D
bz C
1B
1A
x@
1?
bx >
bx =
bx <
0;
1:
bx 9
bx 8
07
06
x5
bx 4
x3
x2
bx 1
bx 0
bx /
0.
x-
bx ,
bx +
x*
0)
bx (
0'
bx &
bz %
0$
z#
1"
0!
$end
#1000
03
1*
b0 1
b0 M#
b0 ,
b0 h$
b0 n$
b0 9
b0 >
b0 i
b0 /#
b0 ,#
b0 &
b0 L#
b0 8
b0 i$
b0 o$
1t#
0u#
0>$
1=$
1[$
0\$
b0 N"
b0 O"
b0 I"
b0 &"
b0 3"
b0 :"
b0 <
b0 f
b0 .#
b0 z#
b0 {#
b0 D$
b0 E$
0K$
b0 a$
b0 b$
0y#
0`$
b0 \#
b0 Z#
b0 ]#
b0 [#
b1 b#
b0 Y#
b100 A#
b0 [
b0 h"
b0 B#
b0 s
b0 M"
b0 q"
b0 r
b0 L"
b0 r"
b0 k
b0 0"
b0 c"
b0 \
b0 /"
b0 d"
b0 )"
b0 1"
b0 b"
0H
b0 N
b0 ,"
b0 g"
b0 T
b0 -"
b0 f"
b0 X
b0 ."
b0 e"
b0 ("
b0 @"
b0 t"
b0 L
b0 D"
b0 x"
b0 h
b0 A"
b0 w"
0G
b0 O
b0 C"
b0 v"
b0 Q
b0 B"
b0 u"
0I
b0 J
b0 &#
b0 F#
b0 K
b0 %#
b0 E#
b10 0#
11#
02#
13#
0p
b0 g
b0 j"
b0 z"
b0 6#
b0 a
b0 i"
b0 7#
0^
b0 <#
b0 5#
b0 :#
b0 4#
b0 ;#
b0 9#
b0 =#
0V#
0~#
1W#
1}#
b0 "$
b0 !$
0?$
0H$
1R#
1G$
b0 J$
b0 I$
02
0Q#
0e$
1&$
1d$
b0 g$
b0 f$
b0 4
b0 X#
b0 k#
b0 g#
0l#
b0 m#
b0 x#
0n#
0q#
b0 p#
b0 $$
b0 _$
b0 i#
b0 0
b0 N#
b0 f#
b0 j#
b0 h#
15
b1 o#
b0 s"
b100000 I#
b100000 >#
1$
1!
#2000
0$
0!
#3000
b110111 =
b110111 D
b110111 '#
b110111 (
b110111 O#
b110111 +
b110111 m$
0@
b110111 l$
b110111 p$
b0 q$
b100000 >#
b100000 I#
1$
1!
#4000
0$
0!
#5000
b100000 I#
b100000 >#
1$
1!
#6000
0$
0!
#7000
b100000 >#
b100000 I#
1$
1!
#8000
0$
0!
#9000
b100000 I#
b100000 >#
1$
1!
#10000
0$
0!
#11000
b100000 >#
b100000 I#
1$
1!
#12000
0$
0!
#13000
b100000 I#
b100000 >#
1$
1!
#14000
0$
0!
#15000
b100000 >#
b100000 I#
1$
1!
#16000
0$
0!
#17000
b100000 I#
b100000 >#
1$
1!
#18000
0$
0!
#19000
b100000 >#
b100000 I#
1$
1!
#20000
0$
0!
#21000
b100000 I#
b100000 >#
1$
1!
#22000
0$
0!
#23000
b100000 >#
b100000 I#
1$
1!
#24000
0$
0!
#25000
b100000 I#
b100000 >#
1$
1!
#26000
0$
0!
#27000
b100000 >#
b100000 I#
1$
1!
#28000
0$
0!
#29000
b100000 I#
b100000 >#
1$
1!
#30000
0$
0!
#31000
b100000 >#
b100000 I#
1$
1!
#32000
0$
0!
#33000
b100000 I#
b100000 >#
1$
1!
#34000
0$
0!
#35000
b100000 >#
b100000 I#
1$
1!
#36000
0$
0!
#37000
b100000 I#
b100000 >#
1$
1!
#38000
0$
0!
#39000
b100000 >#
b100000 I#
1$
1!
#40000
0$
0!
#41000
b100000 I#
b100000 >#
1$
1!
#42000
0$
0!
#43000
b100000 >#
b100000 I#
1$
1!
#44000
0$
0!
#45000
b100000 I#
b100000 >#
1$
1!
#46000
0$
0!
#47000
b100000 >#
b100000 I#
1$
1!
#48000
0$
0!
#49000
b100000 I#
b100000 >#
1$
1!
#50000
0"
0$
0!
#51000
0B
b100000 >#
b100000 I#
1$
1!
#52000
0$
0!
#53000
b11 |
b11 ?"
b11 a"
b11 p"
b11 $#
b11 @#
b11 J#
1m
1l
xE
xF
0A
b100000 I#
b100000 >#
1$
1!
#54000
0$
0!
#55000
b1 1
b1 M#
b1 ,
b1 h$
b1 n$
b1 9
b1 >
b1 i
b1 /#
0E
b1 ,#
b11 |
b11 ?"
b11 a"
b11 p"
b11 $#
b11 @#
b11 J#
0F
1l
1m
b10 .$
0-
b1 4#
b0 `
b0 y"
b0 8#
b10 g
b10 j"
b10 z"
b10 6#
b1 /$
z:$
b100000 I#
1$
1!
#56000
0$
0!
#57000
b10 1
b10 M#
b10 ,
b10 h$
b10 n$
b10 9
b10 >
b10 i
b10 /#
b1 =
b1 D
b1 '#
b10 ,#
b1 (
b1 O#
b1 +
b1 m$
b11 .$
b1 l$
b1 p$
b1 q$
b10 4#
b110111 5#
b10 /$
1$
1!
#58000
0$
0!
