riscv/test/out.vcd
$date
	Sat Jan 15 00:10:18 2022
$end
$version
	Icarus Verilog
$end
$timescale
	1ps
$end
$scope module testbench $end
$var reg 1 ! clk $end
$var reg 1 " rst $end
$scope module top $end
$var wire 1 ! EXCLK $end
$var wire 1 # Rx $end
$var wire 1 " btnC $end
$var wire 1 $ clk $end
$var wire 32 % cpu_dbgreg_dout [31:0] $end
$var wire 8 & hci_io_din [7:0] $end
$var wire 1 ' hci_io_wr $end
$var wire 8 ( hci_ram_din [7:0] $end
$var wire 1 ) led $end
$var wire 1 * ram_en $end
$var wire 8 + ram_dout [7:0] $end
$var wire 17 , ram_a [16:0] $end
$var wire 1 - program_finish $end
$var wire 1 . hci_ram_wr $end
$var wire 8 / hci_ram_dout [7:0] $end
$var wire 17 0 hci_ram_a [16:0] $end
$var wire 3 1 hci_io_sel [2:0] $end
$var wire 1 2 hci_io_full $end
$var wire 1 3 hci_io_en $end
$var wire 8 4 hci_io_dout [7:0] $end
$var wire 1 5 hci_active_out $end
$var wire 1 6 hci_active $end
$var wire 1 7 cpumc_wr $end
$var wire 8 8 cpumc_din [7:0] $end
$var wire 32 9 cpumc_a [31:0] $end
$var wire 1 : cpu_rdy $end
$var wire 1 ; cpu_ram_wr $end
$var wire 8 < cpu_ram_dout [7:0] $end
$var wire 8 = cpu_ram_din [7:0] $end
$var wire 32 > cpu_ram_a [31:0] $end
$var wire 1 ? Tx $end
$var reg 1 @ q_hci_io_en $end
$var reg 1 A rst $end
$var reg 1 B rst_delay $end
$scope module cpu0 $end
$var wire 1 $ clk_in $end
$var wire 32 C dbgreg_dout [31:0] $end
$var wire 8 D mem_din [7:0] $end
$var wire 1 : rdy_in $end
$var wire 1 E rst $end
$var wire 1 F rst_in $end
$var wire 1 G write_rsd_or_not_to_mem $end
$var wire 1 H write_rsd_or_not_to_ex_ $end
$var wire 1 I wb_write_or_not $end
$var wire 32 J wb_write_data_ [31:0] $end
$var wire 5 K wb_write_addr_ [4:0] $end
$var wire 32 L store_data_to_mem [31:0] $end
$var wire 32 M store_data_out_from_ex [31:0] $end
$var wire 5 N rsd_to_ex_ [4:0] $end
$var wire 32 O rsd_data_out_to_mem [31:0] $end
$var wire 32 P rsd_data_from_mem [31:0] $end
$var wire 5 Q rsd_addr_out_to_mem [4:0] $end
$var wire 5 R rsd_addr_from_mem [4:0] $end
$var wire 5 S reg2addr_ [4:0] $end
$var wire 32 T reg2_to_ex_ [31:0] $end
$var wire 1 U reg2_reador_not_ $end
$var wire 32 V reg2_data_ [31:0] $end
$var wire 5 W reg1addr_ [4:0] $end
$var wire 32 X reg1_to_ex_ [31:0] $end
$var wire 1 Y reg1_reador_not_ $end
$var wire 32 Z reg1_data_ [31:0] $end
$var wire 32 [ pctarget_ex_to_btb [31:0] $end
$var wire 32 \ pc_to_if [31:0] $end
$var wire 32 ] pc_predict [31:0] $end
$var wire 32 ^ pc_out_to_ex_ [31:0] $end
$var wire 32 _ pc_ex_to_btb [31:0] $end
$var wire 32 ` pc_dest_btb_ [31:0] $end
$var wire 1 a out_write_or_not_from_mem $end
$var wire 1 b memload_done $end
$var wire 32 c memdata_to_write_to_memctrl [31:0] $end
$var wire 32 d memctrl_load_to_mem [31:0] $end
$var wire 32 e memctrl_load_to_if [31:0] $end
$var wire 32 f memaddr_to_read_to_memctrl [31:0] $end
$var wire 1 ; mem_wr $end
$var wire 1 g mem_stall $end
$var wire 1 h mem_if_write $end
$var wire 1 i mem_if_read $end
$var wire 8 j mem_dout [7:0] $end
$var wire 2 k mem_busy_state [1:0] $end
$var wire 32 l mem_addr_out_mem [31:0] $end
$var wire 32 m mem_a [31:0] $end
$var wire 1 n isloading_ex_ $end
$var wire 1 2 io_buffer_full $end
$var wire 32 o imm_out_to_ex_ [31:0] $end
$var wire 1 p if_stall $end
$var wire 1 q if_read_or_not_ $end
$var wire 32 r if_read_addr_tomemctrl_ [31:0] $end
$var wire 32 s if_pc_out_ [31:0] $end
$var wire 1 t if_load_done $end
$var wire 32 u if_instru_out_to_if_id [31:0] $end
$var wire 32 v if_id_pc_to_id [31:0] $end
$var wire 32 w if_id_instru_to_id [31:0] $end
$var wire 1 x id_write_rsd_or_not $end
$var wire 1 y id_stall $end
$var wire 5 z id_rsd_to_ex_ [4:0] $end
$var wire 32 { id_reg2_to_ex_ [31:0] $end
$var wire 32 | id_reg1_to_ex_ [31:0] $end
$var wire 32 } id_pc_out_ [31:0] $end
$var wire 32 ~ id_immout_ [31:0] $end
$var wire 6 !" id_cmdtype_to_exe_ [5:0] $end
$var wire 6 "" from_stall_ctrl [5:0] $end
$var wire 1 #" ex_write_or_not $end
$var wire 32 $" ex_rsd_data_ [31:0] $end
$var wire 5 %" ex_rsd_adr_to_write_ [4:0] $end
$var wire 32 &" ex_mem_addr_ [31:0] $end
$var wire 1 '" ex_forward_id_i_ $end
$var wire 32 (" ex_forward_data_i_ [31:0] $end
$var wire 5 )" ex_forward_addr_i_ [4:0] $end
$var wire 6 *" ex_cmd_type_ [5:0] $end
$var wire 3 +" data_len_ [2:0] $end
$var wire 6 ," cmdtype_to_mem [5:0] $end
$var wire 6 -" cmdtype_to_exe_ [5:0] $end
$var wire 32 ." branch_out_addr [31:0] $end
$var wire 1 /" branch_or_not_btb_ $end
$var wire 1 0" branch_or_not_ $end
$var wire 1 1" barnch_to_stall_the_pipline $end
$scope module BTB_BHT_ $end
$var wire 1 $ clk_in $end
$var wire 1 : rdy_in $end
$var wire 1 E rst_in $end
$var wire 32 2" pc [31:0] $end
$var wire 32 3" ex_target_pc [31:0] $end
$var wire 32 4" ex_pc [31:0] $end
$var wire 1 0" ex_isbr $end
$var reg 1 /" branch_or_not_btb $end
$var reg 32 5" pc_dest_btb [31:0] $end
$var reg 32 6" predict_pc [31:0] $end
$var integer 32 7" i [31:0] $end
$upscope $end
$scope module ex_ $end
$var wire 32 8" predict_pc [31:0] $end
$var wire 1 E rst_in $end
$var wire 1 H write_rsd_or_not_to_ex $end
$var wire 5 9" rsd_to_ex [4:0] $end
$var wire 32 :" reg2_to_ex [31:0] $end
$var wire 32 ;" reg1_to_ex [31:0] $end
$var wire 32 <" pc_in [31:0] $end
$var wire 32 =" imm_in [31:0] $end
$var wire 6 >" cmdtype_to_exe [5:0] $end
$var reg 32 ?" branch_address [31:0] $end
$var reg 32 @" branch_address_ [31:0] $end
$var reg 1 0" branch_or_not $end
$var reg 1 1" branch_to_stall_pipline $end
$var reg 6 A" cmdtype_out [5:0] $end
$var reg 5 B" ex_forward_addr_o [4:0] $end
$var reg 32 C" ex_forward_data_o [31:0] $end
$var reg 1 '" ex_forward_id_o $end
$var reg 1 n isloading_ex $end
$var reg 32 D" mem_addr [31:0] $end
$var reg 32 E" mem_val_out_for_store [31:0] $end
$var reg 32 F" pc_out_to_btb [31:0] $end
$var reg 32 G" pc_target_to_btb [31:0] $end
$var reg 5 H" rsd_addr_to_write [4:0] $end
$var reg 32 I" rsd_data [31:0] $end
$var reg 1 #" write_rsd_or_not $end
$upscope $end
$scope module ex_mem_ $end
$var wire 1 $ clk_in $end
$var wire 6 J" cmdtype [5:0] $end
$var wire 32 K" mem_addr [31:0] $end
$var wire 1 : rdy_in $end
$var wire 5 L" rsd_addr_to_write [4:0] $end
$var wire 32 M" rsd_data [31:0] $end
$var wire 1 E rst_in $end
$var wire 32 N" store_data [31:0] $end
$var wire 1 #" write_rsd_or_not $end
$var wire 6 O" stall_in [5:0] $end
$var reg 6 P" cmdtype_out [5:0] $end
$var reg 32 Q" mem_addr_out [31:0] $end
$var reg 5 R" rsd_addr_out [4:0] $end
$var reg 32 S" rsd_data_out [31:0] $end
$var reg 32 T" store_data_out [31:0] $end
$var reg 1 G write_rsd_or_not_out $end
$upscope $end
$scope module id_ $end
$var wire 5 U" ex_forward_addr_i [4:0] $end
$var wire 32 V" ex_forward_data_i [31:0] $end
$var wire 1 '" ex_forward_id_i $end
$var wire 1 n isloading_ex $end
$var wire 1 E rst_in $end
$var wire 1 y stallfrom_id $end
$var wire 32 W" reg2_data [31:0] $end
$var wire 32 X" reg1_data [31:0] $end
$var wire 7 Y" opcode [6:0] $end
$var wire 1 a mem_forward_id_i $end
$var wire 32 Z" mem_forward_data_i [31:0] $end
$var wire 5 [" mem_forward_addr_i [4:0] $end
$var wire 32 \" input_pc [31:0] $end
$var wire 32 ]" input_instru [31:0] $end
$var wire 7 ^" fun7 [6:0] $end
$var wire 3 _" fun3 [2:0] $end
$var reg 6 `" cmdtype_to_exe [5:0] $end
$var reg 32 a" immout [31:0] $end
$var reg 32 b" immreg [31:0] $end
$var reg 32 c" pc_out [31:0] $end
$var reg 1 Y reg1_reador_not $end
$var reg 32 d" reg1_to_ex [31:0] $end
$var reg 5 e" reg1addr [4:0] $end
$var reg 1 U reg2_reador_not $end
$var reg 32 f" reg2_to_ex [31:0] $end
$var reg 5 g" reg2addr [4:0] $end
$var reg 5 h" rsd_to_ex [4:0] $end
$var reg 1 i" stall1 $end
$var reg 1 j" stall2 $end
$var reg 1 x write_rsd_or_not $end
$upscope $end
$scope module id_ex_ $end
$var wire 1 1" branch_or_not $end
$var wire 1 $ clk_in $end
$var wire 6 k" cmdtype_from_id [5:0] $end
$var wire 32 l" imm_in [31:0] $end
$var wire 32 m" pc_in [31:0] $end
$var wire 1 : rdy_in $end
$var wire 32 n" reg1_from_id [31:0] $end
$var wire 32 o" reg2_from_id [31:0] $end
$var wire 5 p" rsd_from_id [4:0] $end
$var wire 1 E rst_in $end
$var wire 1 x write_rsd_or_not_from_id $end
$var wire 6 q" stall_in [5:0] $end
$var reg 6 r" cmdtype_to_exe [5:0] $end
$var reg 32 s" imm_out [31:0] $end
$var reg 32 t" pc_out [31:0] $end
$var reg 32 u" reg1_to_ex [31:0] $end
$var reg 32 v" reg2_to_ex [31:0] $end
$var reg 5 w" rsd_to_ex [4:0] $end
$var reg 1 H write_rsd_or_not_to_ex $end
$upscope $end
$scope module if_ $end
$var wire 1 E rst_in $end
$var wire 32 x" pc_in [31:0] $end
$var wire 32 y" mem_ctrl_read_in [31:0] $end
$var wire 2 z" mem_ctrl_busy_state [1:0] $end
$var wire 1 t if_load_done $end
$var reg 32 {" instr_out [31:0] $end
$var reg 32 |" intru_addr [31:0] $end
$var reg 32 }" pc_out [31:0] $end
$var reg 1 q read_or_not $end
$var reg 1 p stall_from_if $end
$upscope $end
$scope module if_id_ $end
$var wire 1 1" branch_or_not $end
$var wire 1 $ clk_in $end
$var wire 32 ~" input_instru [31:0] $end
$var wire 32 !# input_pc [31:0] $end
$var wire 1 : rdy_in $end
$var wire 1 E rst_in $end
$var wire 6 "# stall_in [5:0] $end
$var reg 32 ## output_instru [31:0] $end
$var reg 32 $# output_pc [31:0] $end
$var reg 32 %# preinstruction_record [31:0] $end
$upscope $end
$scope module mem_ $end
$var wire 6 &# cmdtype [5:0] $end
$var wire 5 '# input_rd_addr [4:0] $end
$var wire 32 (# input_rd_data [31:0] $end
$var wire 32 )# mem_addr [31:0] $end
$var wire 1 E rst_in $end
$var wire 32 *# storedata_in [31:0] $end
$var wire 1 G write_or_not $end
$var wire 1 b mem_load_done $end
$var wire 32 +# mem_ctrl_read_in [31:0] $end
$var wire 2 ,# mem_ctrl_busy_state [1:0] $end
$var reg 3 -# data_len [2:0] $end
$var reg 32 .# mem_addr_to_read [31:0] $end
$var reg 32 /# mem_data_to_write [31:0] $end
$var reg 5 0# out_rd_addr [4:0] $end
$var reg 32 1# out_rd_data [31:0] $end
$var reg 1 a out_write_or_not $end
$var reg 1 i read_mem $end
$var reg 1 g stall_from_mem $end
$var reg 1 h write_mem $end
$upscope $end
$scope module mem_wb_ $end
$var wire 1 $ clk_in $end
$var wire 1 a if_write $end
$var wire 5 2# mem_reg_addr [4:0] $end
$var wire 32 3# mem_reg_data [31:0] $end
$var wire 1 : rdy_in $end
$var wire 1 E rst_in $end
$var wire 6 4# stall_in [5:0] $end
$var reg 1 I if_write_out $end
$var reg 5 5# mem_reg_addr_out [4:0] $end
$var reg 32 6# mem_reg_data_out [31:0] $end
$upscope $end
$scope module memctrl_ $end
$var wire 1 7# bus_busy $end
$var wire 1 $ clk_in $end
$var wire 8 8# d_in [7:0] $end
$var wire 3 9# data_len [2:0] $end
$var wire 1 q if_read_or_not $end
$var wire 32 :# intru_addr [31:0] $end
$var wire 32 ;# mem_addr [31:0] $end
$var wire 32 <# mem_data_to_write [31:0] $end
$var wire 1 : rdy_in $end
$var wire 1 i read_mem $end
$var wire 1 E rst_in $end
$var wire 1 h write_mem $end
$var wire 5 =# write_buffer_to_write_num [4:0] $end
$var wire 3 ># select_cnt [2:0] $end
$var wire 5 ?# read_write_buffer_num [4:0] $end
$var wire 1 ; r_or_w $end
$var wire 32 @# nowaddr [31:0] $end
$var wire 1 2 io_full $end
$var wire 8 A# d_out [7:0] $end
$var wire 32 B# a_out [31:0] $end
$var reg 4 C# IO_cnt [3:0] $end
$var reg 1 D# IO_switch $end
$var reg 2 E# buffer_occupied [1:0] $end
$var reg 1 F# dchachswicth $end
$var reg 1 G# ichachswicth $end
$var reg 1 t if_load_done $end
$var reg 3 H# if_read_cnt [2:0] $end
$var reg 32 I# if_read_instru [31:0] $end
$var reg 2 J# mem_ctrl_busy_state [1:0] $end
$var reg 32 K# mem_ctrl_instru_to_if [31:0] $end
$var reg 32 L# mem_ctrl_load_to_mem [31:0] $end
$var reg 1 b mem_load_done $end
$var reg 3 M# mem_read_cnt [2:0] $end
$var reg 32 N# mem_read_data [31:0] $end
$var reg 3 O# mem_write_cnt [2:0] $end
$var reg 32 P# mem_write_data [31:0] $end
$var reg 1 Q# new_write_buffer $end
$var reg 1 R# old_write_buffer $end
$var reg 32 S# preaddr [31:0] $end
$var reg 3 T# write_buffer_cnt [2:0] $end
$var integer 32 U# i [31:0] $end
$upscope $end
$scope module pc_ $end
$var wire 32 V# branch_addr [31:0] $end
$var wire 1 1" branch_or_not $end
$var wire 32 W# btb_brach_addr [31:0] $end
$var wire 1 /" btb_branch_or_not $end
$var wire 1 $ clk_in $end
$var wire 1 : rdy_in $end
$var wire 1 E rst_in $end
$var wire 6 X# stall_in [5:0] $end
$var wire 32 Y# pc_nxt [31:0] $end
$var reg 32 Z# branch_pc_predict [31:0] $end
$var reg 32 [# pc_out [31:0] $end
$upscope $end
$scope module regfile_ $end
$var wire 1 $ clk_in $end
$var wire 1 Y read1_or_not $end
$var wire 1 U read2_or_not $end
$var wire 5 \# readaddr1 [4:0] $end
$var wire 5 ]# readaddr2 [4:0] $end
$var wire 1 E rst_in $end
$var wire 1 I write_or_not $end
$var wire 5 ^# writeaddr [4:0] $end
$var wire 32 _# writedata [31:0] $end
$var reg 32 `# read1data [31:0] $end
$var reg 32 a# read2data [31:0] $end
$var integer 32 b# i [31:0] $end
$upscope $end
$scope module stallctrl_ $end
$var wire 1 y stall_from_id $end
$var wire 1 p stall_from_if $end
$var wire 1 g stall_from_mem $end
$var reg 6 c# stall [5:0] $end
$upscope $end
$upscope $end
$scope module hci0 $end
$var wire 1 $ clk $end
$var wire 32 d# cpu_dbgreg_din [31:0] $end
$var wire 8 e# io_din [7:0] $end
$var wire 1 3 io_en $end
$var wire 1 2 io_full $end
$var wire 3 f# io_sel [2:0] $end
$var wire 1 ' io_wr $end
$var wire 17 g# ram_a [16:0] $end
$var wire 8 h# ram_din [7:0] $end
$var wire 8 i# ram_dout [7:0] $end
$var wire 1 A rst $end
$var wire 1 # rx $end
$var wire 1 j# tx_full $end
$var wire 1 ? tx $end
$var wire 1 k# rx_empty $end
$var wire 8 l# rd_data [7:0] $end
$var wire 1 m# parity_err $end
$var wire 8 n# io_in_rd_data [7:0] $end
$var wire 1 o# io_in_full $end
$var wire 1 p# io_in_empty $end
$var wire 8 q# io_dout [7:0] $end
$var wire 32 r# d_cpu_cycle_cnt [31:0] $end
$var wire 1 5 active $end
$var reg 17 s# d_addr [16:0] $end
$var reg 3 t# d_decode_cnt [2:0] $end
$var reg 2 u# d_err_code [1:0] $end
$var reg 17 v# d_execute_cnt [16:0] $end
$var reg 8 w# d_io_dout [7:0] $end
$var reg 8 x# d_io_in_wr_data [7:0] $end
$var reg 1 y# d_io_in_wr_en $end
$var reg 1 z# d_program_finish $end
$var reg 5 {# d_state [4:0] $end
$var reg 8 |# d_tx_data [7:0] $end
$var reg 1 }# d_wr_en $end
$var reg 1 ~# io_in_rd_en $end
$var reg 1 - program_finish $end
$var reg 17 !$ q_addr [16:0] $end
$var reg 32 "$ q_cpu_cycle_cnt [31:0] $end
$var reg 3 #$ q_decode_cnt [2:0] $end
$var reg 2 $$ q_err_code [1:0] $end
$var reg 17 %$ q_execute_cnt [16:0] $end
$var reg 8 &$ q_io_dout [7:0] $end
$var reg 1 '$ q_io_en $end
$var reg 8 ($ q_io_in_wr_data [7:0] $end
$var reg 1 )$ q_io_in_wr_en $end
$var reg 5 *$ q_state [4:0] $end
$var reg 8 +$ q_tx_data [7:0] $end
$var reg 1 ,$ q_wr_en $end
$var reg 1 . ram_wr $end
$var reg 1 -$ rd_en $end
$scope module io_in_fifo $end
$var wire 10 .$ addr_bits_wide_1 [9:0] $end
$var wire 1 $ clk $end
$var wire 1 /$ d_empty $end
$var wire 1 0$ d_full $end
$var wire 1 p# empty $end
$var wire 1 o# full $end
$var wire 8 1$ rd_data [7:0] $end
$var wire 1 ~# rd_en $end
$var wire 1 2$ rd_en_prot $end
$var wire 1 A reset $end
$var wire 8 3$ wr_data [7:0] $end
$var wire 1 )$ wr_en $end
$var wire 1 4$ wr_en_prot $end
$var wire 10 5$ d_wr_ptr [9:0] $end
$var wire 10 6$ d_rd_ptr [9:0] $end
$var wire 8 7$ d_data [7:0] $end
$var reg 1 8$ q_empty $end
$var reg 1 9$ q_full $end
$var reg 10 :$ q_rd_ptr [9:0] $end
$var reg 10 ;$ q_wr_ptr [9:0] $end
$upscope $end
$scope module uart_blk $end
$var wire 1 $ clk $end
$var wire 1 <$ d_rx_parity_err $end
$var wire 1 m# parity_err $end
$var wire 1 -$ rd_en $end
$var wire 1 A reset $end
$var wire 1 # rx $end
$var wire 8 =$ tx_data [7:0] $end
$var wire 1 ,$ wr_en $end
$var wire 1 j# tx_full $end
$var wire 8 >$ tx_fifo_rd_data [7:0] $end
$var wire 1 ?$ tx_fifo_empty $end
$var wire 1 @$ tx_done_tick $end
$var wire 1 ? tx $end
$var wire 1 A$ rx_parity_err $end
$var wire 8 B$ rx_fifo_wr_data [7:0] $end
$var wire 1 k# rx_empty $end
$var wire 1 C$ rx_done_tick $end
$var wire 8 D$ rx_data [7:0] $end
$var wire 1 E$ baud_clk_tick $end
$var reg 1 F$ q_rx_parity_err $end
$scope module uart_baud_clk_blk $end
$var wire 1 $ clk $end
$var wire 1 A reset $end
$var wire 16 G$ d_cnt [15:0] $end
$var wire 1 E$ baud_clk_tick $end
$var reg 16 H$ q_cnt [15:0] $end
$upscope $end
$scope module uart_rx_blk $end
$var wire 1 E$ baud_clk_tick $end
$var wire 1 $ clk $end
$var wire 1 A reset $end
$var wire 1 # rx $end
$var wire 8 I$ rx_data [7:0] $end
$var wire 1 C$ rx_done_tick $end
$var wire 1 A$ parity_err $end
$var reg 8 J$ d_data [7:0] $end
$var reg 3 K$ d_data_bit_idx [2:0] $end
$var reg 1 L$ d_done_tick $end
$var reg 4 M$ d_oversample_tick_cnt [3:0] $end
$var reg 1 N$ d_parity_err $end
$var reg 5 O$ d_state [4:0] $end
$var reg 8 P$ q_data [7:0] $end
$var reg 3 Q$ q_data_bit_idx [2:0] $end
$var reg 1 C$ q_done_tick $end
$var reg 4 R$ q_oversample_tick_cnt [3:0] $end
$var reg 1 A$ q_parity_err $end
$var reg 1 S$ q_rx $end
$var reg 5 T$ q_state [4:0] $end
$upscope $end
$scope module uart_rx_fifo $end
$var wire 3 U$ addr_bits_wide_1 [2:0] $end
$var wire 1 $ clk $end
$var wire 1 V$ d_empty $end
$var wire 1 W$ d_full $end
$var wire 1 k# empty $end
$var wire 1 X$ full $end
$var wire 8 Y$ rd_data [7:0] $end
$var wire 1 -$ rd_en $end
$var wire 1 Z$ rd_en_prot $end
$var wire 1 A reset $end
$var wire 8 [$ wr_data [7:0] $end
$var wire 1 C$ wr_en $end
$var wire 1 \$ wr_en_prot $end
$var wire 3 ]$ d_wr_ptr [2:0] $end
$var wire 3 ^$ d_rd_ptr [2:0] $end
$var wire 8 _$ d_data [7:0] $end
$var reg 1 `$ q_empty $end
$var reg 1 a$ q_full $end
$var reg 3 b$ q_rd_ptr [2:0] $end
$var reg 3 c$ q_wr_ptr [2:0] $end
$upscope $end
$scope module uart_tx_blk $end
$var wire 1 E$ baud_clk_tick $end
$var wire 1 $ clk $end
$var wire 1 A reset $end
$var wire 1 ? tx $end
$var wire 1 @$ tx_done_tick $end
$var wire 1 d$ tx_start $end
$var wire 8 e$ tx_data [7:0] $end
$var reg 4 f$ d_baud_clk_tick_cnt [3:0] $end
$var reg 8 g$ d_data [7:0] $end
$var reg 3 h$ d_data_bit_idx [2:0] $end
$var reg 1 i$ d_parity_bit $end
$var reg 5 j$ d_state [4:0] $end
$var reg 1 k$ d_tx $end
$var reg 1 l$ d_tx_done_tick $end
$var reg 4 m$ q_baud_clk_tick_cnt [3:0] $end
$var reg 8 n$ q_data [7:0] $end
$var reg 3 o$ q_data_bit_idx [2:0] $end
$var reg 1 p$ q_parity_bit $end
$var reg 5 q$ q_state [4:0] $end
$var reg 1 r$ q_tx $end
$var reg 1 @$ q_tx_done_tick $end
$upscope $end
$scope module uart_tx_fifo $end
$var wire 10 s$ addr_bits_wide_1 [9:0] $end
$var wire 1 $ clk $end
$var wire 1 t$ d_empty $end
$var wire 1 u$ d_full $end
$var wire 1 ?$ empty $end
$var wire 1 j# full $end
$var wire 8 v$ rd_data [7:0] $end
$var wire 1 @$ rd_en $end
$var wire 1 w$ rd_en_prot $end
$var wire 1 A reset $end
$var wire 8 x$ wr_data [7:0] $end
$var wire 1 ,$ wr_en $end
$var wire 1 y$ wr_en_prot $end
$var wire 10 z$ d_wr_ptr [9:0] $end
$var wire 10 {$ d_rd_ptr [9:0] $end
$var wire 8 |$ d_data [7:0] $end
$var reg 1 }$ q_empty $end
$var reg 1 ~$ q_full $end
$var reg 10 !% q_rd_ptr [9:0] $end
$var reg 10 "% q_wr_ptr [9:0] $end
$upscope $end
$upscope $end
$upscope $end
$scope module ram0 $end
$var wire 17 #% a_in [16:0] $end
$var wire 1 $ clk_in $end
$var wire 8 $% d_in [7:0] $end
$var wire 1 * en_in $end
$var wire 1 %% r_nw_in $end
$var wire 1 &% ram_bram_we $end
$var wire 8 '% ram_bram_dout [7:0] $end
$var wire 8 (% d_out [7:0] $end
$scope module ram_bram $end
$var wire 17 )% addr_a [16:0] $end
$var wire 1 $ clk $end
$var wire 8 *% din_a [7:0] $end
$var wire 8 +% dout_a [7:0] $end
$var wire 1 &% we $end
$var reg 17 ,% q_addr_a [16:0] $end
$var integer 32 -% i [31:0] $end
$upscope $end
$upscope $end
$upscope $end
$upscope $end
$enddefinitions $end
#0
$dumpvars
b100000000000000000 -%
bx ,%
bx +%
bx *%
bx )%
bx (%
bx '%
x&%
x%%
bx $%
bx #%
bx "%
bx !%
x~$
x}$
bx |$
bx {$
bx z$
xy$
bx x$
0w$
bx v$
xu$
xt$
b1 s$
1r$
b1 q$
0p$
b0 o$
b0 n$
b0 m$
0l$
1k$
b1 j$
0i$
b0 h$
b0 g$
b0 f$
bx e$
xd$
bx c$
bx b$
xa$
x`$
bx _$
bx ^$
bx ]$
0\$
b0 [$
0Z$
bx Y$
xX$
xW$
xV$
b1 U$
b1 T$
1S$
b0 R$
b0 Q$
b0 P$
b1 O$
0N$
b0 M$
0L$
b0 K$
b0 J$
b0 I$
b0 H$
b1 G$
0F$
0E$
bx D$
0C$
b0 B$
0A$
0@$
x?$
bx >$
bx =$
0<$
bx ;$
bx :$
x9$
x8$
bx 7$
bx 6$
bx 5$
x4$
bx 3$
02$
bx 1$
x0$
x/$
b1 .$
0-$
x,$
bx +$
bx *$
x)$
bx ($
x'$
bx &$
bx %$
bx $$
bx #$
bx "$
bx !$
0~#
0}#
b0 |#
bx {#
0z#
0y#
b0 x#
b0 w#
bx v#
bx u#
bx t#
bx s#
bx r#
bx q#
xp#
xo#
bx n#
0m#
bx l#
xk#
xj#
bx i#
bx h#
bx g#
bx f#
bx e#
bz d#
b0 c#
bx b#
b0 a#
b0 `#
bx _#
bx ^#
b0 ]#
b0 \#
bx [#
bx Z#
bx Y#
b0 X#
bx W#
b0 V#
bx U#
bx T#
bx S#
xR#
xQ#
bx P#
bx O#
bx N#
bx M#
bx L#
bx K#
bx J#
bx I#
bx H#
xG#
xF#
bx E#
xD#
bx C#
bx B#
bx A#
b0 @#
b0x0x ?#
bx >#
b0x =#
b0 <#
b0 ;#
b0 :#
b0 9#
bx 8#
07#
bx 6#
bx 5#
b0 4#
b0 3#
b0 2#
b0 1#
b0 0#
b0 /#
b0 .#
b0 -#
bx ,#
bx +#
bx *#
bx )#
bx (#
bx '#
bx &#
bx %#
bx $#
bx ##
b0 "#
b0 !#
b0 ~"
b0 }"
b0 |"
b0 {"
bx z"
bx y"
bx x"
bx w"
bx v"
bx u"
bx t"
bx s"
bx r"
b0 q"
b0 p"
b0 o"
b0 n"
b0 m"
b0 l"
b0 k"
0j"
0i"
b0 h"
b0 g"
b0 f"
b0 e"
b0 d"
b0 c"
b0 b"
b0 a"
b0 `"
bx _"
bx ^"
bx ]"
bx \"
b0 ["
b0 Z"
bx Y"
b0 X"
b0 W"
b0 V"
b0 U"
bx T"
bx S"
bx R"
bx Q"
bx P"
b0 O"
b0 N"
b0 M"
b0 L"
b0 K"
bx J"
b0 I"
b0 H"
b0 G"
b0 F"
b0 E"
b0 D"
b0 C"
b0 B"
bx A"
bx @"
b0 ?"
bx >"
bx ="
bx <"
bx ;"
bx :"
bx 9"
b0 8"
bx 7"
b0 6"
bx 5"
b0 4"
b0 3"
bx 2"
01"
00"
x/"
b0 ."
bx -"
bx ,"
b0 +"
bx *"
b0 )"
b0 ("
0'"
b0 &"
b0 %"
b0 $"
0#"
b0 ""
b0 !"
b0 ~
b0 }
b0 |
b0 {
b0 z
0y
0x
bx w
bx v
b0 u
xt
b0 s
b0 r
0q
0p
bx o
0n
bx m
bx l
bx k
bx j
0i
0h
0g
b0 f
bx e
bx d
b0 c
xb
0a
bx `
b0 _
bx ^
b0 ]
bx \
b0 [
b0 Z
0Y
bx X
b0 W
b0 V
0U
bx T
b0 S
b0 R
bx Q
b0 P
bx O
bx N
b0 M
bx L
bx K
bx J
xI
xH
xG
1F
1E
bx D
bz C
1B
1A
x@
1?
bx >
bx =
bx <
x;
1:
bx 9
bx 8
x7
06
x5
bx 4
x3
x2
bx 1
bx 0
bx /
0.
x-
bx ,
bx +
x*
0)
bx (
x'
bx &
bz %
0$
z#
1"
0!
$end
#1000
0&%
03
1*
b0 1
b0 f#
b0 ,
b0 #%
b0 )%
1%%
b0 9
0'
07
b0 >
b0 m
b0 B#
0;
b0 &
b0 e#
b0 8
b0 $%
b0 *%
b100 ?#
b0 >#
b0 <
b0 j
b0 A#
1/$
00$
0W$
1V$
1t$
0u$
0/"
b0 `
b0 5"
b0 W#
b0 ^"
b0 _"
b0 Y"
b0 *"
b0 A"
b0 J"
b0 =#
b0 5$
b0 6$
b0 ]$
b0 ^$
0d$
b0 z$
b0 {$
04$
0y$
b0 u#
b0 s#
b0 v#
b0 t#
b1 {#
b0 r#
b100 Y#
b0 \
b0 2"
b0 x"
b0 [#
b0 w
b0 ]"
b0 ##
b0 v
b0 \"
b0 $#
b0 o
b0 ="
b0 s"
b0 ^
b0 <"
b0 t"
b0 -"
b0 >"
b0 r"
0H
b0 N
b0 9"
b0 w"
b0 T
b0 :"
b0 v"
b0 X
b0 ;"
b0 u"
b0 ,"
b0 P"
b0 &#
b0 L
b0 T"
b0 *#
b0 l
b0 Q"
b0 )#
0G
b0 O
b0 S"
b0 (#
b0 Q
b0 R"
b0 '#
0I
b0 J
b0 6#
b0 _#
b0 K
b0 5#
b0 ^#
b0 T#
b0 E#
b10 C#
1D#
1F#
1G#
0t
b0 k
b0 z"
b0 ,#
b0 J#
b0 e
b0 y"
b0 K#
0b
b0 P#
b0 I#
b0 N#
b0 H#
b0 O#
b0 M#
b0 S#
0Q#
0R#
0o#
09$
1p#
18$
b0 ;$
b0 :$
0X$
0a$
1k#
1`$
b0 c$
b0 b$
02
0j#
0~$
1?$
1}$
b0 "%
b0 !%
b0 4
b0 q#
b0 &$
b0 "$
0'$
b0 ($
b0 3$
0)$
0,$
b0 +$
b0 =$
b0 x$
b0 $$
b0 0
b0 g#
b0 !$
b0 %$
b0 #$
15
b1 *$
b100000 7"
b0 %#
b100000 b#
b10 U#
1$
1!
#2000
0$
0!
#3000
b110111 =
b110111 D
b110111 8#
b110111 (
b110111 h#
b110111 +
b110111 (%
0@
b110111 '%
b110111 +%
b0 ,%
b10 U#
b100000 b#
b100000 7"
1$
1!
#4000
0$
0!
#5000
b100000 7"
b100000 b#
b10 U#
1$
1!
#6000
0$
0!
#7000
b10 U#
b100000 b#
b100000 7"
1$
1!
#8000
0$
0!
#9000
b100000 7"
b100000 b#
b10 U#
1$
1!
#10000
0$
0!
#11000
b10 U#
b100000 b#
b100000 7"
1$
1!
#12000
0$
0!
#13000
b100000 7"
b100000 b#
b10 U#
1$
1!
#14000
0$
0!
#15000
b10 U#
b100000 b#
b100000 7"
1$
1!
#16000
0$
0!
#17000
b100000 7"
b100000 b#
b10 U#
1$
1!
#18000
0$
0!
#19000
b10 U#
b100000 b#
b100000 7"
1$
1!
#20000
0$
0!
#21000
b100000 7"
b100000 b#
b10 U#
1$
1!
